Baxter Logo
<svg xmlns="http://www.w3.org/2000/svg" version="1" viewBox="-.203 -.077 749 127">
  <path fill="#252969" fill-rule="evenodd" d="M442.803 20.213c13.998-2.363 29.496-1.557 44.05-3.216-.095 6.022-2.83 11.892-4.23 17.89l1.348.88 35.37-.238-3.92 14.927-36.65.58c-5.023 14.88-8.865 30.332-13.147 45.557.07 3.907 3.156 6.16 6.375 7.847 11.16 0 24.25 1.72 34.04-2.146l-4.627 17.02-60.897.485c-8.298-1.296-16.777-8.93-18.426-16.654l.347-10.97c7.115-23.76 13.497-48.015 20.37-71.963zM301.536 37.348c11.05 15.497 21.2 31.215 30.39 47.517-17.155 12.236-34.573 23.85-51.912 35.416l.038.9 28.54-.48 32.298-21.713c4.857 6.804 9.512 13.776 12.12 21.522l54.84-.573c-1.183-.3-2.143-1.702-3.103-2.39l-26.704-43.693 54.172-36.895-.05-.88-32.678 1.062c-8.14 10.027-20.53 15-30.778 22.4-4.496-7.338-10.673-13.958-11.78-22.584l-55.394.39zm354.315-2.253l.644 4.21-19.64 72.353-4.775 7.15h51.835l-1.087-5.79 12.712-48.902c.52-2.844 2.91-5.698 5.716-6.966 10.788.162 26.81-3.452 36.72 2.39l6.372-24.283c-16.218 2.525-38.136-7.336-47.482 9.775-1.55-2.81-.686-6.534-.902-9.912l-40.113-.025zM144.385 6L40 6.442l.174 8.134-26.8 94.527L6 122.603l111.555-.065c10.092.226 18.736-2.926 23.334-10.91 3.347-11.727 9.362-22.758 8.004-35.828-1.628-5.084-5.47-9.773-10.265-12.853 4.724-1.315 9.432-3.016 13.14-6.602 7.913-10 10.332-22.583 10.65-34.937-1.79-7.56-9.856-14.11-18.036-15.408zm-56.5 19.302l27.372.226c3.804 2.074 2.426 7.385 1.543 10.21-2.4 5.706-2.234 13.296-7.84 17.09l-31.39.136 10.315-27.662zM72.06 72.122l29.088-.12c4.028 1.707 3.01 7.186 1.912 10.22-3.686 6.6.554 16.764-7.305 20.44L64.1 102.62c1.35-10.1 5.316-20.38 7.958-30.498zm195.836-34.264l-91.567.298-6.463 15.433c22.074-3.18 45.925-1.06 68.017-1.64 1.922.878 2.91 2.788 3.135 4.72-.89 2.645-.64 6.185-3.85 7.653l-60.258 1.342-10.5 4.89c-8.555 8.814-10.42 20.154-11.156 31.973.514 6.88 5.377 13.182 11.684 16.787 14.04 4.166 33.698 2.12 50.3 1.64 3.812-.953 6.31-4.72 8.112-7.753 1.378 2.48 2.434 5.26 3.25 7.904l43.094.19-1.39-5.795 12.72-46.8c1.99-6.05 3.913-14.538-.398-19.945-2.91-5.43-8.993-8.88-14.728-10.897zm-34 42.93l-6.404 22.7-2.765 2.166-21.753.345c-9.365-5.13-.293-15.525.534-22.955l3.53-2.18 26.86-.076zm392.12-44.844l-82.648-.415c-6.243 1.15-11.86 4.764-15.7 10.1-5.717 17.752-11.08 35.696-14.296 54.433 1.46 8.653 8.406 17.158 17.94 19.143l90.737-.237 7.073-17.454-4.53 1.886-62.188.46-3.253-1.52c-4.996-5.747.943-11.658 1.583-17.522l74.84-1.19c2.047-11.87 10.326-23.652 4.24-36.46-2.558-5.083-8.277-9.75-13.8-11.226zm-52.87 15.32l20.055-.32c1.872.48 3.988 2.204 4.627 4.16-.146 4.21-.978 8.305-2.66 12.21l-29.486.49c2.564-5.526 1.65-13.09 7.463-16.54z"></path>
</svg>